…
```r
# B.1 Calculate the total number of steps taken per day 
library( dplyr )
library( lubridate )
DailySteps = activity %>% 
    group_by( date ) %>% 
    summarise( DailySteps = sum(steps, na.rm = TRUE) )

DailySteps
```

```
## # A tibble: 61 x 2
##    date       DailySteps
##    <fct>           <int>
##  1 2012-10-01          0
##  2 2012-10-02        126
##  3 2012-10-03      11352
##  4 2012-10-04      12116
##  5 2012-10-05      13294
##  6 2012-10-06      15420
##  7 2012-10-07      11015
##  8 2012-10-08          0
##  9 2012-10-09      12811
## 10 2012-10-10       9900
## # ... with 51 more rows
```
…
```r
# D.3 new dataset with the missing data filled in
activity_complete = activity %>%
    left_join( y = IntervalSteps, by = 'interval' ) %>%
    mutate( steps = 
                ifelse( is.na( steps ), IntervalAverageSteps, 
                        steps ) ) %>%
    select( -IntervalAverageSteps )
activity_complete
```

```
## # A tibble: 17,568 x 3
##     steps date       interval
##     <dbl> <fct>         <int>
##  1 1.72   2012-10-01        0
##  2 0.340  2012-10-01        5
##  3 0.132  2012-10-01       10
##  4 0.151  2012-10-01       15
##  5 0.0755 2012-10-01       20
##  6 2.09   2012-10-01       25
##  7 0.528  2012-10-01       30
##  8 0.868  2012-10-01       35
##  9 0      2012-10-01       40
## 10 1.47   2012-10-01       45
## # ... with 17,558 more rows
```
…
1. Create a new factor variable in the dataset with two levels: 'weekday' and 'weekend', indicating whether a given date is a weekday or weekend day.


```r
# E.1 new factor with 'weekday' and 'weekend'
activity_complete = activity_complete %>%
    mutate( Weekend = as.factor(ifelse( wday( as.Date(date), 
                                   week_start = 1 ) > 5,
                             'weekend', 'weekday' ) ) )

activity_complete
```

```
## # A tibble: 17,568 x 4
##     steps date       interval Weekend
##     <dbl> <fct>         <int> <fct>  
##  1 1.72   2012-10-01        0 weekday
##  2 0.340  2012-10-01        5 weekday
##  3 0.132  2012-10-01       10 weekday
##  4 0.151  2012-10-01       15 weekday
##  5 0.0755 2012-10-01       20 weekday
##  6 2.09   2012-10-01       25 weekday
##  7 0.528  2012-10-01       30 weekday
##  8 0.868  2012-10-01       35 weekday
##  9 0      2012-10-01       40 weekday
## 10 1.47   2012-10-01       45 weekday
## # ... with 17,558 more rows
```
…
